[
    {
        "key": "group_57b25b69dd798",
        "title": "Sample Group",
        "fields": [
            {
                "key": "field_57b25b6f7116a",
                "label": "Some Field",
                "name": "some_field",
                "type": "wysiwyg",
                "instructions": "Some basic wysiwyg implementation.",
                "required": 0,
                "conditional_logic": 0,
                "wrapper": {
                    "width": "",
                    "class": "",
                    "id": ""
                },
                "default_value": "",
                "tabs": "all",
                "toolbar": "basic",
                "media_upload": 0
            }
        ],
        "location": [
            [
                {
                    "param": "post_type",
                    "operator": "==",
                    "value": "page"
                }
            ]
        ],
        "menu_order": 0,
        "position": "normal",
        "style": "default",
        "label_placement": "top",
        "instruction_placement": "label",
        "hide_on_screen": "",
        "active": 1,
        "description": ""
    }
]